CAS thesis data
…
3.5 Lookup tables

3.5.1 Parteinamen

Die verschiedenen Quellen verwenden teils unteschiedliche Parteibezeichnungen. Zur Vereinheitlichung wird deshalb initial eine Lookup Tabelle gebildet.

Code anzeigen

# National- und Ständerat
print(lookup_elec_nr_sr_combined_parties_label %>%
        distinct(),
      n = 3)

# A tibble: 26 × 7
  party_orig_value short_name long_name prefix add_info level source            
  <chr>            <chr>      <chr>     <chr>  <lgl>    <chr> <chr>             
1 BDP              BDP        <NA>      <NA>   NA       <NA>  National_und_Stän…
2 CSP              CSP        <NA>      <NA>   NA       <NA>  National_und_Stän…
3 CVP              CVP        <NA>      <NA>   NA       <NA>  National_und_Stän…
# ℹ 23 more rows

Code anzeigen

# Kantonale Regierung
print(lookup_kantonale_regierung_parties_label %>%
        distinct(),
      n = 3)

# A tibble: 41 × 7
  party_orig_value short_name long_name prefix add_info level source            
  <chr>            <chr>      <chr>     <chr>  <chr>    <chr> <chr>             
1 FDP 2            FDP        <NA>      <NA>   2        <NA>  Kantonale_Regieru…
2 SP               SP         <NA>      <NA>   <NA>     <NA>  Kantonale_Regieru…
3 SVP              SVP        <NA>      <NA>   <NA>     <NA>  Kantonale_Regieru…
# ℹ 38 more rows

Code anzeigen

# Gemeinde Exekutiven
print(lookup_gemeinde_exekutiven_parties_label %>%
        distinct(),
      n = 3)

# A tibble: 35 × 7
  party_orig_value short_name long_name prefix add_info level source            
  <chr>            <chr>      <chr>     <chr>  <chr>    <chr> <chr>             
1 FDP 1            FDP        <NA>      <NA>   1        <NA>  Gemeinde_Exekutiv…
2 Die Mitte 2      DIE MITTE  <NA>      <NA>   2        <NA>  Gemeinde_Exekutiv…
3 CVP 2            CVP        <NA>      <NA>   2        <NA>  Gemeinde_Exekutiv…
# ℹ 32 more rows

Code anzeigen

# Abstimmungen
print(lookup_voting_parties_label %>%
        distinct(),
      n = 3)

# A tibble: 497 × 7
  party_orig_value short_name long_name prefix add_info level source      
  <chr>            <chr>      <chr>     <chr>  <chr>    <chr> <chr>       
1 p-fdp            FDP        <NA>      p      <NA>     state Abstimmungen
2 p-sps            SPS        <NA>      p      <NA>     state Abstimmungen
3 p-svp            SVP        <NA>      p      <NA>     state Abstimmungen
# ℹ 494 more rows
…
elec_kanton_lvl_kt <- elec_all_combined_input %>%
  filter(role == "Kantonsregierung") %>%
  group_by(year,
           Kt,
           Partei) %>%
  summarise(n_seats_sum = sum(n_seats,
                              na.rm = TRUE),
            .groups = "drop") %>%
  group_by(year,
           Kt) %>%
  mutate(n_seats_pct = 100 * n_seats_sum / sum(n_seats_sum,
                                               na.rm = TRUE)) %>%
  ungroup() %>% print(n=30)

# A tibble: 3,380 × 5
   year  Kt    Partei n_seats_sum n_seats_pct
   <chr> <chr> <chr>        <dbl>       <dbl>
 1 2019  AG    BDP              0        0   
 2 2019  AG    CSP              0        0   
 3 2019  AG    CVP              1        9.09
 4 2019  AG    DEM              0        0   
 5 2019  AG    DSP              0        0   
 6 2019  AG    EDU              0        0   
 7 2019  AG    EVP              0        0   
 8 2019  AG    FDP              1        9.09
 9 2019  AG    FGA              0        0   
10 2019  AG    FPS              0        0   
11 2019  AG    FRONT            0        0   
12 2019  AG    GLP              0        0   
13 2019  AG    GRÜNE            0        0   
14 2019  AG    GRÜT             0        0   
15 2019  AG    JB               0        0   
16 2019  AG    LDU              0        0   
17 2019  AG    LEGA             0        0   
18 2019  AG    LP               0        0   
19 2019  AG    LS               0        0   
20 2019  AG    MCR              0        0   
21 2019  AG    PDA              0        0   
22 2019  AG    POCH             0        0   
23 2019  AG    PSA              0        0   
24 2019  AG    REP              0        0   
25 2019  AG    SD               0        0   
26 2019  AG    SOL              0        0   
27 2019  AG    SP               3       27.3 
28 2019  AG    SVP              6       54.5 
29 2019  AG    ÜBRIGE           0        0   
30 2019  AI    BDP              0        0   
# ℹ 3,350 more rows
…
4.2.3 Entwicklung über die Jahre

Code anzeigen

parties_rating

# A tibble: 46 × 16
   Partei Partei_lang       `Grosse Partei` Relevanz_nationale_A…¹ eco_pct_min_x
   <chr>  <chr>             <chr>           <chr>                          <dbl>
 1 EVP    Evangelische Vol… y               Mittel                          24.5
 2 FDP    Freisinnig-demok… y               Sehr hoch                       74  
 3 GLP    Grünliberale Par… y               Mittel bis hoch                 50  
 4 GPS    Grüne             y               Hoch                            10.6
 5 Mitte  Die Mitte         y               Sehr hoch                       44.9
 6 SPS    SP                y               Sehr hoch                        0  
 7 SVP    Schweizerische V… y               Sehr hoch                       54.3
 8 UCSP   Christlichsozial… n               -                               NA  
 9 PDA    Partei der Arbeit n               Klein                           NA  
10 SD     Schweizer Demokr… n               Klein                           NA  
# ℹ 36 more rows
# ℹ abbreviated name: ¹​Relevanz_nationale_Abstimmungen
# ℹ 11 more variables: eco_pct_avg_x <dbl>, eco_pct_max_x <dbl>,
#   socio_pct_min_y <dbl>, socio_pct_avg_y <dbl>, socio_pct_max_y <dbl>,
#   Positionierung <chr>, eco_x <dbl>, socio_y <dbl>, Kommentar <chr>,
#   Quelle1 <chr>, Quelle2 <chr>

Code anzeigen

elec_nr_sr_lvl_state

# A tibble: 63 × 4
   year  Partei n_seats_sum n_seats_pct
   <chr> <chr>        <dbl>       <dbl>
 1 2019  BDP              9       1.65 
 2 2019  CVP             76      13.9  
 3 2019  EDU              3       0.548
 4 2019  EVP              9       1.65 
 5 2019  FDP             41       7.50 
 6 2019  GLP             48       8.78 
 7 2019  GRÜNE           33       6.03 
 8 2019  LEGA             2       0.366
 9 2019  PDA              2       0.366
10 2019  SOL              2       0.366
# ℹ 53 more rows
…
