cas_thesis_data_prep
…
Code anzeigen

# National- und Ständratssitze pro Partei und Jahr
elec_nr_sr_combined

# A tibble: 4,173 × 5
   role        party_orig_value year  election_year n_seats
   <chr>       <chr>            <chr> <chr>           <dbl>
 1 Nationalrat BDP              1919  1919               NA
 2 Nationalrat BDP              1920  1919               NA
 3 Nationalrat BDP              1921  1919               NA
 4 Nationalrat BDP              1922  1922               NA
 5 Nationalrat BDP              1923  1922               NA
 6 Nationalrat BDP              1924  1922               NA
 7 Nationalrat BDP              1925  1925               NA
 8 Nationalrat BDP              1926  1925               NA
 9 Nationalrat BDP              1927  1925               NA
10 Nationalrat BDP              1928  1928               NA
# ℹ 4,163 more rows
…
Code anzeigen

# National- und Ständratssitze pro Partei und Jahr
elec_canton_combined

# A tibble: 3,848 × 7
   role             party_orig_value year  election_year n_seats Kt    Kanton
   <chr>            <chr>            <chr> <chr>           <dbl> <chr> <chr> 
 1 Kantonsregierung FDP 2            2025  2023                1 ZH    Zürich
 2 Kantonsregierung SP               2025  2023                1 ZH    Zürich
 3 Kantonsregierung SVP              2025  2023                2 ZH    Zürich
 4 Kantonsregierung LP 2             2025  2023               NA ZH    Zürich
 5 Kantonsregierung EVP              2025  2023                0 ZH    Zürich
 6 Kantonsregierung CSP              2025  2023               NA ZH    Zürich
 7 Kantonsregierung GLP              2025  2023                0 ZH    Zürich
 8 Kantonsregierung Die Mitte 3      2025  2023                1 ZH    Zürich
 9 Kantonsregierung CVP 3            2025  2023               NA ZH    Zürich
10 Kantonsregierung BDP 3            2025  2023               NA ZH    Zürich
# ℹ 3,838 more rows
…
lookup_parties_consolidated %>%
  dplyr::count(party_orig_value) %>%
  filter(n > 1)

# A tibble: 0 × 2
# ℹ 2 variables: party_orig_value <chr>, n <int>

Code anzeigen

lookup_parties_consolidated %>%
  distinct(party_orig_value, .keep_all = TRUE)

# A tibble: 561 × 9
   Partei Parteiname party_orig_value short_name long_name prefix add_info level
   <chr>  <chr>      <chr>            <chr>      <lgl>     <chr>  <chr>    <chr>
 1 OTHERS Andere (S… p-others_counte… OTHERS     NA        p      counterp state
 2 OTHERS Andere (S… p-others_counte… OTHERS     NA        p      counter… state
 3 OTHERS Andere (S… p-others_free    OTHERS     NA        p      free     state
 4 OTHERS Andere (S… p-others_free-fr OTHERS     NA        p      free-fr  state
 5 OTHERS Andere (S… p-others_init    OTHERS     NA        p      init     state
 6 OTHERS Andere (S… p-others_init-fr OTHERS     NA        p      init-fr  state
 7 OTHERS Andere (S… p-others_no      OTHERS     NA        p      no       state
 8 OTHERS Andere (S… p-others_no-fr   OTHERS     NA        p      no-fr    state
 9 OTHERS Andere (S… p-others_yes     OTHERS     NA        p      yes      state
10 OTHERS Andere (S… p-others_yes-fr  OTHERS     NA        p      yes-fr   state
# ℹ 551 more rows
# ℹ 1 more variable: source <chr>
…
# Übersicht für alle Dataframes erstellen
for (name in df_names) {
  df_overview(name)
}

==== elec_gemeinde_lvl_gemeinde ====
Anzahl Zeilen: 4637 
Anzahl Spalten: 5 
Spaltennamen:
[1] "year"        "Gemeinde"    "Partei"      "n_seats_sum" "n_seats_pct"
Zeilen mit Zahlen in 'n_seats_sum' (sortiert):
# A tibble: 4,637 × 5
    year Gemeinde Partei n_seats_sum n_seats_pct
   <dbl> <chr>    <chr>        <dbl>       <dbl>
 1  2019 Aarau    FDP              2        28.6
 2  2019 Aarau    SP               2        28.6
 3  2019 Aarau    CVP              1        14.3
 4  2019 Aarau    GRÜNE            1        14.3
 5  2019 Aarau    ÜBRIGE           1        14.3
 6  2019 Adliswil FDP              2        28.6
 7  2019 Adliswil ÜBRIGE           2        28.6
 8  2019 Adliswil CVP              1        14.3
 9  2019 Adliswil SP               1        14.3
10  2019 Adliswil SVP              1        14.3
# ℹ 4,627 more rows

==== elec_gemeinde_lvl_kt ====
Anzahl Zeilen: 1083 
Anzahl Spalten: 7 
Spaltennamen:
[1] "year"                 "Kt"                   "Partei"              
[4] "n_seats_sum"          "n_seats_sum_weighted" "n_seats_pct"         
[7] "n_seats_pct_weighted"
Zeilen mit Zahlen in 'n_seats_sum' (sortiert):
# A tibble: 1,083 × 7
    year Kt    Partei n_seats_sum n_seats_sum_weighted n_seats_pct
   <dbl> <chr> <chr>        <dbl>                <dbl>       <dbl>
 1  2019 AG    FDP             17               247929       25   
 2  2019 AG    ÜBRIGE          15               219033       22.1 
 3  2019 AG    SP              13               200875       19.1 
 4  2019 AG    CVP             11               179675       16.2 
 5  2019 AG    SVP              6                74557        8.82
 6  2019 AG    GRÜNE            4                60825        5.88
 7  2019 AG    GLP              2                25188        2.94
 8  2019 AR    ÜBRIGE           2                31490       28.6 
 9  2019 AR    CVP              1                15745       14.3 
10  2019 AR    EVP              1                15745       14.3 
# ℹ 1,073 more rows
# ℹ 1 more variable: n_seats_pct_weighted <dbl>

==== elec_gemeinde_lvl_state ====
Anzahl Zeilen: 103 
Anzahl Spalten: 6 
Spaltennamen:
[1] "year"                 "Partei"               "n_seats_sum"         
[4] "n_seats_sum_weighted" "n_seats_pct"          "n_seats_pct_weighted"
Zeilen mit Zahlen in 'n_seats_sum' (sortiert):
# A tibble: 103 × 6
    year Partei n_seats_sum n_seats_sum_weighted n_seats_pct
   <dbl> <chr>        <dbl>                <dbl>       <dbl>
 1  2019 FDP            292              6410290      27.7  
 2  2019 SP             220              7087159      20.8  
 3  2019 CVP            162              3380882      15.3  
 4  2019 SVP            131              2152118      12.4  
 5  2019 ÜBRIGE         105              2003701       9.94 
 6  2019 GRÜNE           63              3023756       5.97 
 7  2019 GLP             29              1064924       2.75 
 8  2019 EVP             20               324771       1.89 
 9  2019 CSP              8               122063       0.758
10  2019 BDP              7               127311       0.663
# ℹ 93 more rows
# ℹ 1 more variable: n_seats_pct_weighted <dbl>

==== elec_kanton_lvl_kt ====
Anzahl Zeilen: 3848 
Anzahl Spalten: 5 
Spaltennamen:
[1] "year"        "Kt"          "Partei"      "n_seats_sum" "n_seats_pct"
Zeilen mit Zahlen in 'n_seats_sum' (sortiert):
# A tibble: 3,848 × 5
    year Kt    Partei n_seats_sum n_seats_pct
   <dbl> <chr> <chr>        <dbl>       <dbl>
 1  2019 AG    SVP              2          40
 2  2019 AG    CVP              1          20
 3  2019 AG    FDP              1          20
 4  2019 AG    SP               1          20
 5  2019 AG    BDP              0           0
 6  2019 AG    CSP              0           0
 7  2019 AG    DEM              0           0
 8  2019 AG    DSP              0           0
 9  2019 AG    EDU              0           0
10  2019 AG    EVP              0           0
# ℹ 3,838 more rows

==== elec_kanton_lvl_state ====
Anzahl Zeilen: 148 
Anzahl Spalten: 7 
Spaltennamen:
[1] "year"                       "Partei"                    
[3] "n_seats_sum"                "n_seats_sum_weighted"      
[5] "stimmberechtigte_avg_state" "n_seats_pct"               
[7] "n_seats_pct_weighted"      
Zeilen mit Zahlen in 'n_seats_sum' (sortiert):
# A tibble: 148 × 7
    year Partei n_seats_sum n_seats_sum_weighted stimmberechtigte_avg_state
   <dbl> <chr>        <dbl>                <dbl>                      <dbl>
 1  2019 FDP             39            211955133                    5434747
 2  2019 CVP             38            206520386                    5434747
 3  2019 SP              30            163042410                    5434747
 4  2019 SVP             24            130433928                    5434747
 5  2019 ÜBRIGE           8             43477976                    5434747
 6  2019 GRÜNE            7             38043229                    5434747
 7  2019 BDP              3             16304241                    5434747
 8  2019 LEGA             2             10869494                    5434747
 9  2019 CSP              1              5434747                    5434747
10  2019 LP               1              5434747                    5434747
# ℹ 138 more rows
# ℹ 2 more variables: n_seats_pct <dbl>, n_seats_pct_weighted <dbl>

==== elec_nr_sr_lvl_state ====
Anzahl Zeilen: 85 
Anzahl Spalten: 4 
Spaltennamen:
[1] "year"        "Partei"      "n_seats_sum" "n_seats_pct"
Zeilen mit Zahlen in 'n_seats_sum' (sortiert):
# A tibble: 85 × 4
    year Partei n_seats_sum n_seats_pct
   <dbl> <chr>        <dbl>       <dbl>
 1  2019 SVP             59      24.0  
 2  2019 SP              48      19.5  
 3  2019 FDP             41      16.7  
 4  2019 CVP             38      15.4  
 5  2019 GRÜNE           33      13.4  
 6  2019 GLP             16       6.50 
 7  2019 BDP              3       1.22 
 8  2019 EVP              3       1.22 
 9  2019 EDU              1       0.407
10  2019 LEGA             1       0.407
# ℹ 75 more rows
…
    gemeinde_parole_Nein    = 100 * sum(parole_Nein_wtd_gem, na.rm = TRUE),
    gemeinde_parole_Ja      = 100 * sum(parole_Ja_wtd_gem, na.rm = TRUE),
    gemeinde_parole_Keine   = 100 * sum(parole_Keine_wtd_gem, na.rm = TRUE),
    .groups = "drop")

# Kontrolle:  Summen = 100 ?
voting_5y_long_strength_wtd_summary %>%
  mutate(parole_sum = 
           state_parole_Nein + state_parole_Ja + state_parole_Keine) %>%
  select(anr, year, parole_sum) %>% 
  arrange(desc(parole_sum))

# A tibble: 52 × 3
     anr  year parole_sum
   <dbl> <dbl>      <dbl>
 1   626  2019        100
 2   637  2020        100
 3   627  2019        100
 4   628  2019        100
 5   630  2020        100
 6   631  2020        100
 7   633  2020        100
 8   634  2020        100
 9   636  2020        100
10   638  2021        100
# ℹ 42 more rows
…
# Ergebnis anzeigen
print(cor_test_result) %>% print(n=Inf)

# A tibble: 26 × 4
   target  compare_to              rho    p_value
   <chr>   <chr>                 <dbl>      <dbl>
 1 annahme diff_state         -0.267   0.0554    
 2 annahme diff_kanton         0       1         
 3 annahme diff_gemeinde      -0.00257 0.986     
 4 annahme state_parole_Ja     0.471   0.000428  
 5 annahme kt_parole_Ja        0.413   0.00235   
 6 annahme gemeinde_parole_Ja  0.491   0.000219  
 7 annahme inserate_total     -0.398   0.0122    
 8 annahme inserate_ja_pct     0.384   0.0158    
 9 annahme mediares_tot        0.140   0.322     
10 annahme mediaton_tot        0.573   0.00000885
# ℹ 16 more rows
…
# Speichern 
print(doc, target = "result/Parties_Rating.docx")

print(parties_rating)

# A tibble: 46 × 16
   Partei Partei_lang       `Grosse Partei` Relevanz_nationale_A…¹ eco_pct_min_x
   <chr>  <chr>             <chr>           <chr>                          <dbl>
 1 EVP    Evangelische Vol… y               Mittel                          24.5
 2 FDP    Freisinnig-demok… y               Sehr hoch                       74  
 3 GLP    Grünliberale Par… y               Mittel bis hoch                 50  
 4 GPS    Grüne             y               Hoch                            10.6
 5 Mitte  Die Mitte         y               Sehr hoch                       44.9
 6 SPS    SP                y               Sehr hoch                        0  
 7 SVP    Schweizerische V… y               Sehr hoch                       54.3
 8 UCSP   Christlichsozial… n               -                               NA  
 9 PDA    Partei der Arbeit n               Klein                           NA  
10 SD     Schweizer Demokr… n               Klein                           NA  
# ℹ 36 more rows
# ℹ abbreviated name: ¹​Relevanz_nationale_Abstimmungen
# ℹ 11 more variables: eco_pct_avg_x <dbl>, eco_pct_max_x <dbl>,
#   socio_pct_min_y <dbl>, socio_pct_avg_y <dbl>, socio_pct_max_y <dbl>,
#   Positionierung <chr>, eco_x <dbl>, socio_y <dbl>, Kommentar <chr>,
#   Quelle1 <chr>, Quelle2 <chr>
…
